{{#.}}
{
   "name": "Better Code Macro for Confluence",
   "description": "Atlassian Connect addon to provide a better code macro for Confluence Cloud",
   "externalAccess": true,
   "organization": "Ecosystem Engineering",
   "owners": [ "rmassaioli@atlassian.com" ],
   "scaling": {
      "min": 1
   },
   "notifications": {
      "email": "rmassioli@atlassian.com",
      "pagerduty": {
         "cloudwatch": "https://events.pagerduty.com/integration/81b318b251424cf2bbbd41f9db531d8d/enqueue",
         "apiKey": "81b318b251424cf2bbbd41f9db531d8d"
      }
   },
   "links": {
      "binary": {
         "name": "docker2.atlassian.io/atlassian/cloud-code-macro",
         "type": "docker",
         "tag": "{{RELEASE_VERSION}}"
      },
      "healthcheck": {
         "uri": "rest/heartbeat"
      },
      "source": {
         "url": "https://bitbucket.org/robertmassaioli/cloud-code-macro"
      }
   }
}
{{/.}}
